…
diaMallorca

# Time series de Mallorca
tsMallorca.ts <- ts(select(diaMallorca,media,maxim,minim))
plot(tsMallorca.ts[, 'media'], main = "Media precio diario Mallorca", ylab = "Precio diario")
plot(tsMallorca.ts[, 'minim'], main = "Media precio mínimo Mallorca", ylab = "Precio diario")
plot(tsMallorca.ts[, 'maxim'], main = "Media precio máximo Mallorca", ylab = "Precio diario")

# Se obtienen resultados extraños, mínimo de zero y máximo muy grande, con un summary, verificamos que efectivamente, hay valores nulos y muy grandes en los datos iniciales

# > mediaDiaMallorca
# # A tibble: 366 × 4
#    date       media maxim minim
#    <date>     <dbl> <dbl> <dbl>
#  1 2021-10-14  217. 21000     0
#  2 2021-10-15  224. 21000     0
#  3 2021-10-16  223. 21000     0
#  4 2021-10-17  222. 21000     0
#  5 2021-10-18  221. 21000     0
#  6 2021-10-19  221. 21000     0
#  7 2021-10-20  221. 21000     0
#  8 2021-10-21  221. 21000     0
#  9 2021-10-22  222. 21000     0
# 10 2021-10-23  222. 21000     0
# # … with 356 more rows
…
dmediaM <- ts(c(diaMallorca$media))
dmediaM
plot.ts(dmediaM)

dminimM <- ts(c(diaMallorca$minim))
dminimM
plot.ts(dminimM)

dmaximM <- ts(c(diaMallorca$maxim))
dmaximM
plot.ts(dmaximM)
# Se obtienen resultados extraños, mínimo de zero y máximo de 21000, con un summary, verificamos que efectivamente, hay valores nulos y muy grandes en los datos iniciales

# > mediaDiaMallorca
# # A tibble: 366 × 4
#    date       media maxim minim
#    <date>     <dbl> <dbl> <dbl>
#  1 2021-10-14  217. 21000     0
#  2 2021-10-15  224. 21000     0
#  3 2021-10-16  223. 21000     0
#  4 2021-10-17  222. 21000     0
#  5 2021-10-18  221. 21000     0
#  6 2021-10-19  221. 21000     0
#  7 2021-10-20  221. 21000     0
#  8 2021-10-21  221. 21000     0
#  9 2021-10-22  222. 21000     0
# 10 2021-10-23  222. 21000     0
# # … with 356 more rows
…
